dump.vcd
$date
	Fri Jul 11 04:44:07 2025
$end

$version
	Synopsys VCS version U-2023.03-SP2_Full64
$end

$timescale
	1ns
$end

$comment Csum: 1 125441864b2821e4 $end


$scope module $unit $end
$upscope $end


$scope module tb_top $end
$var reg 1 ! clk $end
$var reg 1 " rst $end

$scope module intf1 $end
$var wire 1 # clk $end
$var wire 1 $ rst $end
$var reg 1 % data_status $end
$var reg 8 & data_in [7:0] $end
$upscope $end


$scope module intf2 $end
$var wire 1 # clk $end
$var wire 1 $ rst $end
$var reg 1 ' mem_en $end
$var reg 2 ( mem_addr [1:0] $end
$var reg 1 ) mem_rd_wr $end
$var reg 8 * mem_data [7:0] $end
$upscope $end


$scope module intf3 $end
$var wire 1 # clk $end
$var reg 1 + read_0 $end
$var reg 1 , read_1 $end
$var reg 1 - read_2 $end
$var reg 1 . read_3 $end
$var reg 1 / ready_0 $end
$var reg 1 0 ready_1 $end
$var reg 1 1 ready_2 $end
$var reg 1 2 ready_3 $end
$var reg 8 3 port_0 [7:0] $end
$var reg 8 4 port_1 [7:0] $end
$var reg 8 5 port_2 [7:0] $end
$var reg 8 6 port_3 [7:0] $end
$var wire 1 $ rst $end
$upscope $end


$scope module s1 $end
$var wire 1 # clk $end
$var wire 1 $ reset $end
$var wire 1 7 data_status $end
$var wire 8 8 data [7:0] $end
$var wire 1 9 mem_en $end
$var wire 1 : mem_rd_wr $end
$var wire 2 ; mem_add [1:0] $end
$var wire 8 < mem_data [7:0] $end
$var wire 8 = port0 [7:0] $end
$var wire 8 > port1 [7:0] $end
$var wire 8 ? port2 [7:0] $end
$var wire 8 @ port3 [7:0] $end
$var wire 1 A ready_0 $end
$var wire 1 B ready_1 $end
$var wire 1 C ready_2 $end
$var wire 1 D ready_3 $end
$var wire 1 E read_0 $end
$var wire 1 F read_1 $end
$var wire 1 G read_2 $end
$var wire 1 H read_3 $end
$var wire 8 I data_out_0 [7:0] $end
$var wire 8 J data_out_1 [7:0] $end
$var wire 8 K data_out_2 [7:0] $end
$var wire 8 L data_out_3 [7:0] $end
$var wire 1 M ll0 $end
$var wire 1 N ll1 $end
$var wire 1 O ll2 $end
$var wire 1 P ll3 $end
$var wire 1 Q empty_0 $end
$var wire 1 R empty_1 $end
$var wire 1 S empty_2 $end
$var wire 1 T empty_3 $end
$var wire 1 U ffee $end
$var wire 1 V ffee0 $end
$var wire 1 W ffee1 $end
$var wire 1 X ffee2 $end
$var wire 1 Y ffee3 $end
$var wire 1 Z ld0 $end
$var wire 1 [ ld1 $end
$var wire 1 \ ld2 $end
$var wire 1 ] ld3 $end
$var wire 1 ^ hold $end
$var wire 1 _ write_enb [3] $end
$var wire 1 ` write_enb [2] $end
$var wire 1 a write_enb [1] $end
$var wire 1 b write_enb [0] $end
$var wire 8 c data_out_fsm [7:0] $end
$var wire 8 d addr [7:0] $end

$scope module queue_0 $end
$var wire 1 # clk $end
$var wire 1 $ reset $end
$var wire 1 b write_enb $end
$var wire 1 E read $end
$var wire 8 e data_in [7:0] $end
$var reg 8 f data_out [7:0] $end
$var wire 1 Q empty $end
$var wire 1 M full $end
$var reg 1 g tmp_empty $end
$var reg 1 h tmp_full $end
$var integer 32 i write_ptr $end
$var integer 32 j read_ptr $end
$upscope $end


$scope module queue_1 $end
$var wire 1 # clk $end
$var wire 1 $ reset $end
$var wire 1 a write_enb $end
$var wire 1 F read $end
$var wire 8 e data_in [7:0] $end
$var reg 8 k data_out [7:0] $end
$var wire 1 R empty $end
$var wire 1 N full $end
$var reg 1 l tmp_empty $end
$var reg 1 m tmp_full $end
$var integer 32 n write_ptr $end
$var integer 32 o read_ptr $end
$upscope $end


$scope module queue_2 $end
$var wire 1 # clk $end
$var wire 1 $ reset $end
$var wire 1 ` write_enb $end
$var wire 1 G read $end
$var wire 8 e data_in [7:0] $end
$var reg 8 p data_out [7:0] $end
$var wire 1 S empty $end
$var wire 1 O full $end
$var reg 1 q tmp_empty $end
$var reg 1 r tmp_full $end
$var integer 32 s write_ptr $end
$var integer 32 t read_ptr $end
$upscope $end


$scope module queue_3 $end
$var wire 1 # clk $end
$var wire 1 $ reset $end
$var wire 1 _ write_enb $end
$var wire 1 H read $end
$var wire 8 e data_in [7:0] $end
$var reg 8 u data_out [7:0] $end
$var wire 1 T empty $end
$var wire 1 P full $end
$var reg 1 v tmp_empty $end
$var reg 1 w tmp_full $end
$var integer 32 x write_ptr $end
$var integer 32 y read_ptr $end
$upscope $end


$scope module in_port $end
$var wire 1 # clk $end
$var wire 1 $ reset $end
$var wire 8 z mem0 [7:0] $end
$var wire 8 { mem1 [7:0] $end
$var wire 8 | mem2 [7:0] $end
$var wire 8 } mem3 [7:0] $end
$var wire 4 ~ write_enb [3:0] $end
$var wire 1 U ffee $end
$var wire 1 ^ hold $end
$var wire 1 7 data_status $end
$var wire 8 8 data_in [7:0] $end
$var reg 8 c data_out [7:0] $end
$var reg 8 d addr [7:0] $end
$var reg 4 "! write_enb_r [3:0] $end
$var reg 1 "" fsm_write_enb $end
$var reg 4 "# state_r [3:0] $end
$var reg 4 "$ state [3:0] $end
$var reg 8 "% parity [7:0] $end
$var reg 8 "& parity_delayed [7:0] $end
$var reg 1 "' sus_data_in $end
$var reg 1 "( error $end
$var wire 1 "' busy $end

$scope begin addr_mux $end
$upscope $end


$scope begin fsm_state $end
$upscope $end


$scope begin fsm_core $end
$upscope $end

$upscope $end

$upscope $end

$upscope $end

$enddefinitions $end

#0
$dumpvars
0!
1"
bxxxxxxxx &
bxxxxxxxx *
bxx (
bxxxxxxxx 6
bxxxxxxxx 5
bxxxxxxxx 4
bxxxxxxxx 3
x"(
xU
xV
xW
xX
xY
x""
x^
xZ
x[
x\
x]
x"'
bxxxxxxxx c
bxxxxxxxx I
bxxxxxxxx J
bxxxxxxxx K
bxxxxxxxx L
bxxxxxxxx d
bxxxxxxxx z
bxxxxxxxx {
bxxxxxxxx |
bxxxxxxxx }
bxxxxxxxx "%
bxxxxxxxx "&
bxxxx "$
bxxxx ~
bxxxx "!
bxxxx "#
xg
xh
bxxxxxxxx f
bxxxxxxxxxxxxxxxxxxxxxxxxxxxxxxxx j
bxxxxxxxxxxxxxxxxxxxxxxxxxxxxxxxx i
xl
xm
bxxxxxxxx k
bxxxxxxxxxxxxxxxxxxxxxxxxxxxxxxxx o
bxxxxxxxxxxxxxxxxxxxxxxxxxxxxxxxx n
xq
xr
bxxxxxxxx p
bxxxxxxxxxxxxxxxxxxxxxxxxxxxxxxxx t
bxxxxxxxxxxxxxxxxxxxxxxxxxxxxxxxx s
xv
xw
bxxxxxxxx u
bxxxxxxxxxxxxxxxxxxxxxxxxxxxxxxxx y
bxxxxxxxxxxxxxxxxxxxxxxxxxxxxxxxx x
bxxxxxxxx 8
bxxxxxxxx =
bxxxxxxxx >
bxxxxxxxx ?
bxxxxxxxx @
bxx ;
bxxxxxxxx <
xb
xa
x`
x_
bxxxxxxxx e
xM
xN
xO
xP
x7
1E
1F
1G
1H
xA
xB
xC
xD
x9
x:
0#
1$
x%
x'
x)
1+
1,
1-
1.
x/
x0
x1
x2
xQ
xR
xS
xT
$end
#5
1!
1#
#10
0!
0#
#15
1!
1#
#20
0"
0$
0!
0#
0"(
b00000000 c
b00000000 e
b00000000 d
b0000 "!
b0000 ~
0b
0a
0`
0_
0""
b0000 "#
b0000 "$
b00000000 "%
b00000000 "&
0"'
b00000000 f
b00000000 I
b00000000 =
b00000000 3
1g
1Q
0A
0/
0h
0M
b00000000000000000000000000000000 i
b00000000000000000000000000000000 j
b00000000 k
b00000000 J
b00000000 >
b00000000 4
1l
1R
0B
00
0m
0N
b00000000000000000000000000000000 n
b00000000000000000000000000000000 o
b00000000 p
b00000000 K
b00000000 ?
b00000000 5
1q
1S
0C
01
0r
0O
b00000000000000000000000000000000 s
b00000000000000000000000000000000 t
b00000000 u
b00000000 L
b00000000 @
b00000000 6
1v
1T
0D
02
0w
0P
b00000000000000000000000000000000 x
b00000000000000000000000000000000 y
x"'
1V
0Z
1W
0[
1X
0\
1Y
0]
1U
0^
0"'
0'
09
b00 (
b00 ;
0)
0:
b00000000 *
b00000000 <
0%
07
b00000000 &
b00000000 8
#25
1!
1#
#30
0!
0#
#35
1!
1#
#40
0!
0#
#43
1"
1$
#45
1!
1#
1'
19
#50
0!
0#
#55
1!
1#
1)
1:
#60
0!
0#
#65
1!
1#
b00000000 z
b11 (
b11 ;
b01100111 *
b01100111 <
#70
0!
0#
#75
1!
1#
b01100111 }
0)
0:
#80
0!
0#
#85
1!
1#
#90
0!
0#
#95
1!
1#
1)
1:
#100
0!
0#
#105
1!
1#
b10 (
b10 ;
b00101011 *
b00101011 <
#110
0!
0#
#115
1!
1#
b00101011 |
0)
0:
#120
0!
0#
#125
1!
1#
#130
0!
0#
#135
1!
1#
1)
1:
#140
0!
0#
#145
1!
1#
b01 (
b01 ;
b10110001 *
b10110001 <
#150
0!
0#
#155
1!
1#
b10110001 {
0)
0:
#160
0!
0#
#165
1!
1#
#170
0!
0#
#175
1!
1#
1)
1:
#180
0!
0#
#185
1!
1#
b00 (
b00 ;
b10000100 *
b10000100 <
#190
0!
0#
#195
1!
1#
b10000100 z
0)
0:
0'
09
1%
17
b01100111 &
b01100111 8
b1000 "!
b0001 "$
b01100111 d
b01100111 c
b01100111 e
1""
b1000 ~
1_
#200
0!
0#
#205
1!
1#
b00000000000000000000000000000001 x
b0001 "#
0v
0T
1D
12
0Y
0U
b10111001 &
b10111001 8
b10111001 c
b10111001 e
#210
0!
0#
#215
1!
1#
b00000000000000000000000000000010 x
b00000000000000000000000000000001 y
b01100111 u
b01100111 L
b01100111 @
b01100111 6
b11111111 &
b11111111 8
b11111111 c
b11111111 e
#220
0!
0#
#225
1!
1#
b00000000000000000000000000000011 x
b00000000000000000000000000000010 y
b10111001 u
b10111001 L
b10111001 @
b10111001 6
b10110101 &
b10110101 8
b10110101 c
b10110101 e
#230
0!
0#
#235
1!
1#
b00000000000000000000000000000100 x
b00000000000000000000000000000011 y
b11111111 u
b11111111 L
b11111111 @
b11111111 6
b01111011 &
b01111011 8
b01111011 c
b01111011 e
#240
0!
0#
#245
1!
1#
b00000000000000000000000000000101 x
b00000000000000000000000000000100 y
b10110101 u
b10110101 L
b10110101 @
b10110101 6
b11000101 &
b11000101 8
b11000101 c
b11000101 e
#250
0!
0#
#255
1!
1#
b00000000000000000000000000000110 x
b00000000000000000000000000000101 y
b01111011 u
b01111011 L
b01111011 @
b01111011 6
b10000000 &
b10000000 8
b10000000 c
b10000000 e
#260
0!
0#
#265
1!
1#
b00000000000000000000000000000111 x
b00000000000000000000000000000110 y
b11000101 u
b11000101 L
b11000101 @
b11000101 6
b10001011 &
b10001011 8
b10001011 c
b10001011 e
#270
0!
0#
#275
1!
1#
b00000000000000000000000000001000 x
b00000000000000000000000000000111 y
b10000000 u
b10000000 L
b10000000 @
b10000000 6
b01011011 &
b01011011 8
b01011011 c
b01011011 e
#280
0!
0#
#285
1!
1#
b00000000000000000000000000001001 x
b00000000000000000000000000001000 y
b10001011 u
b10001011 L
b10001011 @
b10001011 6
b01011010 &
b01011010 8
b01011010 c
b01011010 e
#290
0!
0#
#295
1!
1#
b00000000000000000000000000001010 x
b00000000000000000000000000001001 y
b01011011 u
b01011011 L
b01011011 @
b01011011 6
b11111001 &
b11111001 8
b11111001 c
b11111001 e
#300
0!
0#
#305
1!
1#
b00000000000000000000000000001011 x
b00000000000000000000000000001010 y
b01011010 u
b01011010 L
b01011010 @
b01011010 6
b10000001 &
b10000001 8
b10000001 c
b10000001 e
#310
0!
0#
#315
1!
1#
b00000000000000000000000000001100 x
b00000000000000000000000000001011 y
b11111001 u
b11111001 L
b11111001 @
b11111001 6
b00001111 &
b00001111 8
b00001111 c
b00001111 e
#320
0!
0#
#325
1!
1#
b00000000000000000000000000001101 x
b00000000000000000000000000001100 y
b10000001 u
b10000001 L
b10000001 @
b10000001 6
b01001001 &
b01001001 8
b01001001 c
b01001001 e
#330
0!
0#
#335
1!
1#
b00000000000000000000000000001110 x
b00000000000000000000000000001101 y
b00001111 u
b00001111 L
b00001111 @
b00001111 6
b01110111 &
b01110111 8
b01110111 c
b01110111 e
#340
0!
0#
#345
1!
1#
b00000000000000000000000000001111 x
b00000000000000000000000000001110 y
b01001001 u
b01001001 L
b01001001 @
b01001001 6
b00010000 &
b00010000 8
b00010000 c
b00010000 e
#350
0!
0#
#355
1!
1#
b00000000000000000000000000000000 x
b00000000000000000000000000001111 y
b01110111 u
b01110111 L
b01110111 @
b01110111 6
b01111100 &
b01111100 8
b01111100 c
b01111100 e
#360
0!
0#
#365
1!
1#
b00000000000000000000000000000001 x
b00000000000000000000000000000000 y
b00010000 u
b00010000 L
b00010000 @
b00010000 6
b00000010 &
b00000010 8
b00000010 c
b00000010 e
#370
0!
0#
#375
1!
1#
b00000000000000000000000000000010 x
b00000000000000000000000000000001 y
b01111100 u
b01111100 L
b01111100 @
b01111100 6
b11000010 &
b11000010 8
b11000010 c
b11000010 e
#380
0!
0#
#385
1!
1#
b00000000000000000000000000000011 x
b00000000000000000000000000000010 y
b00000010 u
b00000010 L
b00000010 @
b00000010 6
b01101011 &
b01101011 8
b01101011 c
b01101011 e
#390
0!
0#
#395
1!
1#
b00000000000000000000000000000100 x
b00000000000000000000000000000011 y
b11000010 u
b11000010 L
b11000010 @
b11000010 6
b01000000 &
b01000000 8
b01000000 c
b01000000 e
#400
0!
0#
#405
1!
1#
b00000000000000000000000000000101 x
b00000000000000000000000000000100 y
b01101011 u
b01101011 L
b01101011 @
b01101011 6
b11010011 &
b11010011 8
b11010011 c
b11010011 e
#410
0!
0#
#415
1!
1#
b00000000000000000000000000000110 x
b00000000000000000000000000000101 y
b01000000 u
b01000000 L
b01000000 @
b01000000 6
b00000001 &
b00000001 8
b00000001 c
b00000001 e
#420
0!
0#
#425
1!
1#
b00000000000000000000000000000111 x
b00000000000000000000000000000110 y
b11010011 u
b11010011 L
b11010011 @
b11010011 6
b11001110 &
b11001110 8
b11001110 c
b11001110 e
#430
0!
0#
#435
1!
1#
b00000000000000000000000000001000 x
b00000000000000000000000000000111 y
b00000001 u
b00000001 L
b00000001 @
b00000001 6
b11101111 &
b11101111 8
b11101111 c
b11101111 e
#440
0!
0#
#445
1!
1#
b00000000000000000000000000001001 x
b00000000000000000000000000001000 y
b11001110 u
b11001110 L
b11001110 @
b11001110 6
b10110011 &
b10110011 8
b10110011 c
b10110011 e
#450
0!
0#
#455
1!
1#
b00000000000000000000000000001010 x
b00000000000000000000000000001001 y
b11101111 u
b11101111 L
b11101111 @
b11101111 6
b01100011 &
b01100011 8
b01100011 c
b01100011 e
#460
0!
0#
#465
1!
1#
b00000000000000000000000000001011 x
b00000000000000000000000000001010 y
b10110011 u
b10110011 L
b10110011 @
b10110011 6
b10011100 &
b10011100 8
b10011100 c
b10011100 e
#470
0!
0#
#475
1!
1#
b00000000000000000000000000001100 x
b00000000000000000000000000001011 y
b01100011 u
b01100011 L
b01100011 @
b01100011 6
b11001111 &
b11001111 8
b11001111 c
b11001111 e
#480
0!
0#
#485
1!
1#
b00000000000000000000000000001101 x
b00000000000000000000000000001100 y
b10011100 u
b10011100 L
b10011100 @
b10011100 6
b00101001 &
b00101001 8
b00101001 c
b00101001 e
#490
0!
0#
#495
1!
1#
b00000000000000000000000000001110 x
b00000000000000000000000000001101 y
b11001111 u
b11001111 L
b11001111 @
b11001111 6
b11001101 &
b11001101 8
b11001101 c
b11001101 e
#500
0!
0#
#505
1!
1#
b00000000000000000000000000001111 x
b00000000000000000000000000001110 y
b00101001 u
b00101001 L
b00101001 @
b00101001 6
b01111101 &
b01111101 8
b01111101 c
b01111101 e
#510
0!
0#
#515
1!
1#
b00000000000000000000000000000000 x
b00000000000000000000000000001111 y
b11001101 u
b11001101 L
b11001101 @
b11001101 6
b10110111 &
b10110111 8
b10110111 c
b10110111 e
#520
0!
0#
#525
1!
1#
b00000000000000000000000000000001 x
b00000000000000000000000000000000 y
b01111101 u
b01111101 L
b01111101 @
b01111101 6
b01101111 &
b01101111 8
b01101111 c
b01101111 e
#530
0!
0#
#535
1!
1#
b00000000000000000000000000000010 x
b00000000000000000000000000000001 y
b10110111 u
b10110111 L
b10110111 @
b10110111 6
b01101010 &
b01101010 8
b01101010 c
b01101010 e
#540
0!
0#
#545
1!
1#
b00000000000000000000000000000011 x
b00000000000000000000000000000010 y
b01101111 u
b01101111 L
b01101111 @
b01101111 6
b01100000 &
b01100000 8
b01100000 c
b01100000 e
#550
0!
0#
#555
1!
1#
b00000000000000000000000000000100 x
b00000000000000000000000000000011 y
b01101010 u
b01101010 L
b01101010 @
b01101010 6
b10111101 &
b10111101 8
b10111101 c
b10111101 e
#560
0!
0#
#565
1!
1#
b00000000000000000000000000000101 x
b00000000000000000000000000000100 y
b01100000 u
b01100000 L
b01100000 @
b01100000 6
b11101100 &
b11101100 8
b11101100 c
b11101100 e
#570
0!
0#
#575
1!
1#
b00000000000000000000000000000110 x
b00000000000000000000000000000101 y
b10111101 u
b10111101 L
b10111101 @
b10111101 6
b00001010 &
b00001010 8
b00001010 c
b00001010 e
#580
0!
0#
#585
1!
1#
b00000000000000000000000000000111 x
b00000000000000000000000000000110 y
b11101100 u
b11101100 L
b11101100 @
b11101100 6
b00000110 &
b00000110 8
b00000110 c
b00000110 e
#590
0!
0#
#595
1!
1#
b00000000000000000000000000001000 x
b00000000000000000000000000000111 y
b00001010 u
b00001010 L
b00001010 @
b00001010 6
b00110000 &
b00110000 8
b00110000 c
b00110000 e
#600
0!
0#
#605
1!
1#
b00000000000000000000000000001001 x
b00000000000000000000000000001000 y
b00000110 u
b00000110 L
b00000110 @
b00000110 6
b11010111 &
b11010111 8
b11010111 c
b11010111 e
#610
0!
0#
#615
1!
1#
b00000000000000000000000000001010 x
b00000000000000000000000000001001 y
b00110000 u
b00110000 L
b00110000 @
b00110000 6
b11110110 &
b11110110 8
b11110110 c
b11110110 e
#620
0!
0#
#625
1!
1#
b00000000000000000000000000001011 x
b00000000000000000000000000001010 y
b11010111 u
b11010111 L
b11010111 @
b11010111 6
b01001101 &
b01001101 8
b01001101 c
b01001101 e
#630
0!
0#
#635
1!
1#
b00000000000000000000000000001100 x
b00000000000000000000000000001011 y
b11110110 u
b11110110 L
b11110110 @
b11110110 6
b00100110 &
b00100110 8
b00100110 c
b00100110 e
#640
0!
0#
#645
1!
1#
b00000000000000000000000000001101 x
b00000000000000000000000000001100 y
b01001101 u
b01001101 L
b01001101 @
b01001101 6
b00101100 &
b00101100 8
b00101100 c
b00101100 e
#650
0!
0#
#655
1!
1#
b00000000000000000000000000001110 x
b00000000000000000000000000001101 y
b00100110 u
b00100110 L
b00100110 @
b00100110 6
b10100100 &
b10100100 8
b10100100 c
b10100100 e
#660
0!
0#
#665
1!
1#
b00000000000000000000000000001111 x
b00000000000000000000000000001110 y
b00101100 u
b00101100 L
b00101100 @
b00101100 6
b01101101 &
b01101101 8
b01101101 c
b01101101 e
#670
0!
0#
#675
1!
1#
b00000000000000000000000000000000 x
b00000000000000000000000000001111 y
b10100100 u
b10100100 L
b10100100 @
b10100100 6
b10011001 &
b10011001 8
b10011001 c
b10011001 e
#680
0!
0#
#685
1!
1#
b00000000000000000000000000000001 x
b00000000000000000000000000000000 y
b01101101 u
b01101101 L
b01101101 @
b01101101 6
b11110010 &
b11110010 8
b11110010 c
b11110010 e
#690
0!
0#
#695
1!
1#
b00000000000000000000000000000010 x
b00000000000000000000000000000001 y
b10011001 u
b10011001 L
b10011001 @
b10011001 6
b10100010 &
b10100010 8
b10100010 c
b10100010 e
#700
0!
0#
#705
1!
1#
b00000000000000000000000000000011 x
b00000000000000000000000000000010 y
b11110010 u
b11110010 L
b11110010 @
b11110010 6
b11110011 &
b11110011 8
b11110011 c
b11110011 e
#710
0!
0#
#715
1!
1#
b00000000000000000000000000000100 x
b00000000000000000000000000000011 y
b10100010 u
b10100010 L
b10100010 @
b10100010 6
b01100101 &
b01100101 8
b01100101 c
b01100101 e
#720
0!
0#
#725
1!
1#
b00000000000000000000000000000101 x
b00000000000000000000000000000100 y
b11110011 u
b11110011 L
b11110011 @
b11110011 6
b00100010 &
b00100010 8
b00100010 c
b00100010 e
#730
0!
0#
#735
1!
1#
b00000000000000000000000000000110 x
b00000000000000000000000000000101 y
b01100101 u
b01100101 L
b01100101 @
b01100101 6
b10010100 &
b10010100 8
b10010100 c
b10010100 e
#740
0!
0#
#745
1!
1#
b00000000000000000000000000000111 x
b00000000000000000000000000000110 y
b00100010 u
b00100010 L
b00100010 @
b00100010 6
b00110010 &
b00110010 8
b00110010 c
b00110010 e
#750
0!
0#
#755
1!
1#
b00000000000000000000000000001000 x
b00000000000000000000000000000111 y
b10010100 u
b10010100 L
b10010100 @
b10010100 6
b00110111 &
b00110111 8
b00110111 c
b00110111 e
#760
0!
0#
#765
1!
1#
b00000000000000000000000000001001 x
b00000000000000000000000000001000 y
b00110010 u
b00110010 L
b00110010 @
b00110010 6
b01100001 &
b01100001 8
b01100001 c
b01100001 e
#770
0!
0#
#775
1!
1#
b00000000000000000000000000001010 x
b00000000000000000000000000001001 y
b00110111 u
b00110111 L
b00110111 @
b00110111 6
b00000111 &
b00000111 8
b00000111 c
b00000111 e
#780
0!
0#
#785
1!
1#
b00000000000000000000000000001011 x
b00000000000000000000000000001010 y
b01100001 u
b01100001 L
b01100001 @
b01100001 6
b01111001 &
b01111001 8
b01111001 c
b01111001 e
#790
0!
0#
#795
1!
1#
b00000000000000000000000000001100 x
b00000000000000000000000000001011 y
b00000111 u
b00000111 L
b00000111 @
b00000111 6
b00001100 &
b00001100 8
b00001100 c
b00001100 e
#800
0!
0#
#805
1!
1#
b00000000000000000000000000001101 x
b00000000000000000000000000001100 y
b01111001 u
b01111001 L
b01111001 @
b01111001 6
b11011000 &
b11011000 8
b11011000 c
b11011000 e
#810
0!
0#
#815
1!
1#
b00000000000000000000000000001110 x
b00000000000000000000000000001101 y
b00001100 u
b00001100 L
b00001100 @
b00001100 6
b00110011 &
b00110011 8
b00110011 c
b00110011 e
#820
0!
0#
#825
1!
1#
b00000000000000000000000000001111 x
b00000000000000000000000000001110 y
b11011000 u
b11011000 L
b11011000 @
b11011000 6
b10000011 &
b10000011 8
b10000011 c
b10000011 e
#830
0!
0#
#835
1!
1#
b00000000000000000000000000000000 x
b00000000000000000000000000001111 y
b00110011 u
b00110011 L
b00110011 @
b00110011 6
b10101101 &
b10101101 8
b10101101 c
b10101101 e
#840
0!
0#
#845
1!
1#
b00000000000000000000000000000001 x
b00000000000000000000000000000000 y
b10000011 u
b10000011 L
b10000011 @
b10000011 6
b01000110 &
b01000110 8
b01000110 c
b01000110 e
#850
0!
0#
#855
1!
1#
b00000000000000000000000000000010 x
b00000000000000000000000000000001 y
b10101101 u
b10101101 L
b10101101 @
b10101101 6
b00110101 &
b00110101 8
b00110101 c
b00110101 e
#860
0!
0#
#865
1!
1#
b00000000000000000000000000000011 x
b00000000000000000000000000000010 y
b01000110 u
b01000110 L
b01000110 @
b01000110 6
b00100011 &
b00100011 8
b00100011 c
b00100011 e
#870
0!
0#
#875
1!
1#
b00000000000000000000000000000100 x
b00000000000000000000000000000011 y
b00110101 u
b00110101 L
b00110101 @
b00110101 6
b11111011 &
b11111011 8
b11111011 c
b11111011 e
#880
0!
0#
#885
1!
1#
b00000000000000000000000000000101 x
b00000000000000000000000000000100 y
b00100011 u
b00100011 L
b00100011 @
b00100011 6
b00010101 &
b00010101 8
b00010101 c
b00010101 e
#890
0!
0#
#895
1!
1#
b00000000000000000000000000000110 x
b00000000000000000000000000000101 y
b11111011 u
b11111011 L
b11111011 @
b11111011 6
b00011111 &
b00011111 8
b00011111 c
b00011111 e
#900
0!
0#
#905
1!
1#
b00000000000000000000000000000111 x
b00000000000000000000000000000110 y
b00010101 u
b00010101 L
b00010101 @
b00010101 6
b00011100 &
b00011100 8
b00011100 c
b00011100 e
#910
0!
0#
#915
1!
1#
b00000000000000000000000000001000 x
b00000000000000000000000000000111 y
b00011111 u
b00011111 L
b00011111 @
b00011111 6
b00011011 &
b00011011 8
b00011011 c
b00011011 e
#920
0!
0#
#925
1!
1#
b00000000000000000000000000001001 x
b00000000000000000000000000001000 y
b00011100 u
b00011100 L
b00011100 @
b00011100 6
b00101000 &
b00101000 8
b00101000 c
b00101000 e
#930
0!
0#
#935
1!
1#
b00000000000000000000000000001010 x
b00000000000000000000000000001001 y
b00011011 u
b00011011 L
b00011011 @
b00011011 6
b01000111 &
b01000111 8
b01000111 c
b01000111 e
#940
0!
0#
#945
1!
1#
b00000000000000000000000000001011 x
b00000000000000000000000000001010 y
b00101000 u
b00101000 L
b00101000 @
b00101000 6
b10101000 &
b10101000 8
b10101000 c
b10101000 e
#950
0!
0#
#955
1!
1#
b00000000000000000000000000001100 x
b00000000000000000000000000001011 y
b01000111 u
b01000111 L
b01000111 @
b01000111 6
b10111000 &
b10111000 8
b10111000 c
b10111000 e
#960
0!
0#
#965
1!
1#
b00000000000000000000000000001101 x
b00000000000000000000000000001100 y
b10101000 u
b10101000 L
b10101000 @
b10101000 6
b01011110 &
b01011110 8
b01011110 c
b01011110 e
#970
0!
0#
#975
1!
1#
b00000000000000000000000000001110 x
b00000000000000000000000000001101 y
b10111000 u
b10111000 L
b10111000 @
b10111000 6
b01101110 &
b01101110 8
b01101110 c
b01101110 e
#980
0!
0#
#985
1!
1#
b00000000000000000000000000001111 x
b00000000000000000000000000001110 y
b01011110 u
b01011110 L
b01011110 @
b01011110 6
b00100101 &
b00100101 8
b00100101 c
b00100101 e
#990
0!
0#
#995
1!
1#
b00000000000000000000000000000000 x
b00000000000000000000000000001111 y
b01101110 u
b01101110 L
b01101110 @
b01101110 6
b00010110 &
b00010110 8
b00010110 c
b00010110 e
#1000
0!
0#
#1005
1!
1#
b00000000000000000000000000000001 x
b00000000000000000000000000000000 y
b00100101 u
b00100101 L
b00100101 @
b00100101 6
b10100110 &
b10100110 8
b10100110 c
b10100110 e
#1010
0!
0#
#1015
1!
1#
b00000000000000000000000000000010 x
b00000000000000000000000000000001 y
b00010110 u
b00010110 L
b00010110 @
b00010110 6
b11000100 &
b11000100 8
b11000100 c
b11000100 e
#1020
0!
0#
#1025
1!
1#
b00000000000000000000000000000011 x
b00000000000000000000000000000010 y
b10100110 u
b10100110 L
b10100110 @
b10100110 6
b01110000 &
b01110000 8
b01110000 c
b01110000 e
#1030
0!
0#
#1035
1!
1#
b00000000000000000000000000000100 x
b00000000000000000000000000000011 y
b11000100 u
b11000100 L
b11000100 @
b11000100 6
b01011000 &
b01011000 8
b01011000 c
b01011000 e
#1040
0!
0#
#1045
1!
1#
b00000000000000000000000000000101 x
b00000000000000000000000000000100 y
b01110000 u
b01110000 L
b01110000 @
b01110000 6
b01111110 &
b01111110 8
b01111110 c
b01111110 e
#1050
0!
0#
#1055
1!
1#
b00000000000000000000000000000110 x
b00000000000000000000000000000101 y
b01011000 u
b01011000 L
b01011000 @
b01011000 6
b00010010 &
b00010010 8
b00010010 c
b00010010 e
#1060
0!
0#
#1065
1!
1#
b00000000000000000000000000000111 x
b00000000000000000000000000000110 y
b01111110 u
b01111110 L
b01111110 @
b01111110 6
b01110010 &
b01110010 8
b01110010 c
b01110010 e
#1070
0!
0#
#1075
1!
1#
b00000000000000000000000000001000 x
b00000000000000000000000000000111 y
b00010010 u
b00010010 L
b00010010 @
b00010010 6
b10001110 &
b10001110 8
b10001110 c
b10001110 e
#1080
0!
0#
#1085
1!
1#
b00000000000000000000000000001001 x
b00000000000000000000000000001000 y
b01110010 u
b01110010 L
b01110010 @
b01110010 6
b00111101 &
b00111101 8
b00111101 c
b00111101 e
#1090
0!
0#
#1095
1!
1#
b00000000000000000000000000001010 x
b00000000000000000000000000001001 y
b10001110 u
b10001110 L
b10001110 @
b10001110 6
b00101111 &
b00101111 8
b00101111 c
b00101111 e
#1100
0!
0#
#1105
1!
1#
b00000000000000000000000000001011 x
b00000000000000000000000000001010 y
b00111101 u
b00111101 L
b00111101 @
b00111101 6
b10010001 &
b10010001 8
b10010001 c
b10010001 e
#1110
0!
0#
#1115
1!
1#
b00000000000000000000000000001100 x
b00000000000000000000000000001011 y
b00101111 u
b00101111 L
b00101111 @
b00101111 6
b11000011 &
b11000011 8
b11000011 c
b11000011 e
#1120
0!
0#
#1125
1!
1#
b00000000000000000000000000001101 x
b00000000000000000000000000001100 y
b10010001 u
b10010001 L
b10010001 @
b10010001 6
b10001101 &
b10001101 8
b10001101 c
b10001101 e
#1130
0!
0#
#1135
1!
1#
b00000000000000000000000000001110 x
b00000000000000000000000000001101 y
b11000011 u
b11000011 L
b11000011 @
b11000011 6
b11101101 &
b11101101 8
b11101101 c
b11101101 e
#1140
0!
0#
#1145
1!
1#
b00000000000000000000000000001111 x
b00000000000000000000000000001110 y
b10001101 u
b10001101 L
b10001101 @
b10001101 6
b01011101 &
b01011101 8
b01011101 c
b01011101 e
#1150
0!
0#
#1155
1!
1#
b00000000000000000000000000000000 x
b00000000000000000000000000001111 y
b11101101 u
b11101101 L
b11101101 @
b11101101 6
b10110110 &
b10110110 8
b10110110 c
b10110110 e
#1160
0!
0#
#1165
1!
1#
b00000000000000000000000000000001 x
b00000000000000000000000000000000 y
b01011101 u
b01011101 L
b01011101 @
b01011101 6
b10110100 &
b10110100 8
b10110100 c
b10110100 e
#1170
0!
0#
#1175
1!
1#
b00000000000000000000000000000010 x
b00000000000000000000000000000001 y
b10110110 u
b10110110 L
b10110110 @
b10110110 6
b11100100 &
b11100100 8
b11100100 c
b11100100 e
#1180
0!
0#
